oneBitAdder_waveform.vcd
$date
     May 28, 2017       22:56:58
$end

$version
 SystemC 2.3.1-Accellera --- May 22 2017 22:23:54
$end

$timescale
     1 ps
$end

$scope module SystemC $end
$var wire    1  aaaaa  A_in       $end
$var wire    1  aaaab  B_in       $end
$var wire    1  aaaac  Carry_in       $end
$var wire    1  aaaad  Carry_out       $end
$var wire    1  aaaae  Sum_out       $end
$upscope $end
$enddefinitions  $end

$comment
All initial values are dumped below at time 0 sec = 0 timescale units.
$end

$dumpvars
xaaaaa
xaaaab
xaaaac
0aaaad
1aaaae
$end

#50000
0aaaaa
0aaaab
0aaaac
0aaaae

#250000
1aaaaa
1aaaae

#450000
0aaaaa
1aaaab

#650000
1aaaaa
1aaaad
0aaaae

#850000
0aaaaa
0aaaab
1aaaac
0aaaad
1aaaae

#1050000
1aaaaa
1aaaad
0aaaae

#1250000
0aaaaa
1aaaab

#1450000
1aaaaa
1aaaae

#1650000
0aaaaa
0aaaab
0aaaac
0aaaad
0aaaae

#1850000
1aaaaa
1aaaae

#2050000
0aaaaa
1aaaab

#2250000
1aaaaa
1aaaad
0aaaae

#2450000
0aaaaa
0aaaab
1aaaac
0aaaad
1aaaae

#2650000
1aaaaa
1aaaad
0aaaae

#2850000
0aaaaa
1aaaab

#3050000
1aaaaa
1aaaae

#3250000
0aaaaa
0aaaab
0aaaac
0aaaad
0aaaae

#3450000
1aaaaa
1aaaae

#3650000
0aaaaa
1aaaab

#3850000
1aaaaa
1aaaad
0aaaae

#4050000
0aaaaa
0aaaab
1aaaac
0aaaad
1aaaae

#4250000
1aaaaa
1aaaad
0aaaae

#4450000
0aaaaa
1aaaab

#4650000
1aaaaa
1aaaae

#4850000
0aaaaa
0aaaab
0aaaac
0aaaad
0aaaae

#5050000
1aaaaa
1aaaae

#5250000
0aaaaa
1aaaab

#5450000
1aaaaa
1aaaad
0aaaae

#5650000
0aaaaa
0aaaab
1aaaac
0aaaad
1aaaae

#5850000
1aaaaa
1aaaad
0aaaae

#6050000
0aaaaa
1aaaab

#6250000
1aaaaa
1aaaae

#6450000
0aaaaa
0aaaab
0aaaac
0aaaad
0aaaae

#6650000
1aaaaa
1aaaae

#6850000
0aaaaa
1aaaab

#7050000
1aaaaa
1aaaad
0aaaae

#7250000
0aaaaa
0aaaab
1aaaac
0aaaad
1aaaae

#7450000
1aaaaa
1aaaad
0aaaae

#7650000
0aaaaa
1aaaab

#7850000
1aaaaa
1aaaae

